…
---

    Code
      ctry_pwc
    Output
      # A tibble: 201 x 2
         region_id   value
             <dbl>   <dbl>
       1         1   0.977
       2         2   0.963
       3         3   0.971
       4         4   0.977
       5         5 NaN    
       6         7   0.952
       7         8   0.796
       8         9   0.954
       9        10   0.928
      10        11   0.988
      # i 191 more rows
